{
	"id": "nodebb-plugin-topic-evidenza-altri-ordinamenti",
	"name": "Mette i topics in evidenza in alto in tutti gli ordinamenti di default di NodeBB ",
	"description": "topics pinned tutti in alto in tutti gli ordinamenti e",
	"url": "https://gitlab.com/search-on-npm/nodebb-plugin-topic-evidenza-altri-ordinamenti",
	"library": "./library.js",
	"hooks": [
		
		{
			"hook": "filter:category.topics.get", "method": "riordinaCategoria" 
		}
		
	]
	
	
}
